module gitlab.com/RezaAndriansyah/view-bot

go 1.19

require golang.org/x/net v0.0.0-20220812174116-3211cb980234

require (
	github.com/danwakefield/fnmatch v0.0.0-20160403171240-cbb64ac3d964 // indirect
	github.com/gin-contrib/sse v0.1.0 // indirect
	github.com/gin-gonic/gin v1.8.1 // indirect
	github.com/go-playground/locales v0.14.0 // indirect
	github.com/go-playground/universal-translator v0.18.0 // indirect
	github.com/go-playground/validator/v10 v10.11.0 // indirect
	github.com/go-stack/stack v1.8.1 // indirect
	github.com/goccy/go-json v0.9.11 // indirect
	github.com/json-iterator/go v1.1.12 // indirect
	github.com/leodido/go-urn v1.2.1 // indirect
	github.com/mattn/go-isatty v0.0.16 // indirect
	github.com/modern-go/concurrent v0.0.0-20180306012644-bacd9c7ef1dd // indirect
	github.com/modern-go/reflect2 v1.0.2 // indirect
	github.com/pelletier/go-toml/v2 v2.0.3 // indirect
	github.com/playwright-community/playwright-go v0.2000.1 // indirect
	github.com/ugorji/go/codec v1.2.7 // indirect
	golang.org/x/crypto v0.0.0-20220817201139-bc19a97f63c8 // indirect
	golang.org/x/sys v0.0.0-20220818161305-2296e01440c6 // indirect
	golang.org/x/text v0.3.7 // indirect
	google.golang.org/protobuf v1.28.1 // indirect
	gopkg.in/square/go-jose.v2 v2.6.0 // indirect
	gopkg.in/yaml.v2 v2.4.0 // indirect
)
